<?xml version="1.0" encoding="UTF-8"?>
<svg width="415px" height="73px" viewBox="0 0 415 73" version="1.1" xmlns="http://www.w3.org/2000/svg" xmlns:xlink="http://www.w3.org/1999/xlink">
    <!-- Generator: Sketch 48.2 (47327) - http://www.bohemiancoding.com/sketch -->
    <title>Slice 2</title>
    <desc>Created with Sketch.</desc>
    <defs></defs>
    <g id="Page-1" stroke="none" stroke-width="1" fill="none" fill-rule="evenodd">
        <g id="Proximo-Concurso" transform="translate(5.000000, 1.000000)">
            <path d="M76.52,51 L76.52,25.8 L87.5,25.8 C93.944,25.8 97.652,28.968 97.652,34.584 C97.652,40.488 93.944,43.908 87.5,43.908 L82.928,43.908 L82.928,51 L76.52,51 Z M82.928,38.868 L87.176,38.868 C89.984,38.868 91.604,37.464 91.604,34.8 C91.604,32.172 89.984,30.84 87.176,30.84 L82.928,30.84 L82.928,38.868 Z M100.964,51 L100.964,31.596 L107.192,31.596 L107.192,34.872 C108.524,32.604 110.72,31.344 113.492,31.308 L113.492,36.924 C109.892,36.6 107.516,38.292 107.192,41.028 L107.192,51 L100.964,51 Z M114.716,41.28 C114.716,35.304 118.964,31.38 125.336,31.38 C131.672,31.38 135.92,35.304 135.92,41.28 C135.92,47.256 131.672,51.216 125.336,51.216 C118.964,51.216 114.716,47.256 114.716,41.28 Z M120.98,41.352 C120.98,44.376 122.744,46.392 125.336,46.392 C127.892,46.392 129.656,44.376 129.656,41.352 C129.656,38.364 127.892,36.312 125.336,36.312 C122.744,36.312 120.98,38.364 120.98,41.352 Z M122.204,29.4 L126.02,23.352 L131.636,25.332 L126.956,29.4 L122.204,29.4 Z M135.848,51 L142.472,41.064 L136.28,31.596 L143.408,31.596 L146.648,37.176 L150.104,31.596 L156.908,31.596 L150.752,41.028 L157.34,51 L150.176,51 L146.648,44.916 L142.688,51 L135.848,51 Z M159.86,26.016 C159.86,24.108 161.228,22.74 163.136,22.74 C165.044,22.74 166.412,24.108 166.412,26.016 C166.412,27.96 165.044,29.328 163.136,29.328 C161.228,29.328 159.86,27.96 159.86,26.016 Z M160.004,51 L160.004,31.596 L166.196,31.596 L166.196,51 L160.004,51 Z M171.2,51 L171.2,31.596 L177.392,31.596 L177.392,34.8 C178.724,32.496 180.956,31.344 183.8,31.308 C186.968,31.308 189.308,32.964 190.28,35.7 C191.54,32.82 193.916,31.344 197.12,31.308 C201.368,31.308 204.104,34.224 204.104,38.76 L204.104,51 L197.912,51 L197.912,40.488 C197.912,38.184 196.616,36.78 194.564,36.78 C192.224,36.852 190.784,38.76 190.784,41.388 L190.784,51 L184.556,51 L184.556,40.488 C184.556,38.184 183.296,36.78 181.244,36.78 C178.868,36.852 177.392,38.76 177.392,41.388 L177.392,51 L171.2,51 Z M206.912,41.28 C206.912,35.304 211.16,31.38 217.532,31.38 C223.868,31.38 228.116,35.304 228.116,41.28 C228.116,47.256 223.868,51.216 217.532,51.216 C211.16,51.216 206.912,47.256 206.912,41.28 Z M213.176,41.352 C213.176,44.376 214.94,46.392 217.532,46.392 C220.088,46.392 221.852,44.376 221.852,41.352 C221.852,38.364 220.088,36.312 217.532,36.312 C214.94,36.312 213.176,38.364 213.176,41.352 Z M238.196,38.328 C238.196,31.056 243.992,25.584 251.66,25.584 C255.404,25.584 259.292,27.24 261.812,29.832 L258.104,34.224 C256.448,32.208 254,30.948 251.768,30.948 C247.772,30.948 244.748,34.116 244.748,38.256 C244.748,42.468 247.772,45.672 251.768,45.672 C253.892,45.672 256.34,44.52 258.104,42.72 L261.848,46.68 C259.148,49.452 255.152,51.288 251.444,51.288 C243.848,51.288 238.196,45.708 238.196,38.328 Z M262.676,41.28 C262.676,35.304 266.924,31.38 273.296,31.38 C279.632,31.38 283.88,35.304 283.88,41.28 C283.88,47.256 279.632,51.216 273.296,51.216 C266.924,51.216 262.676,47.256 262.676,41.28 Z M268.94,41.352 C268.94,44.376 270.704,46.392 273.296,46.392 C275.852,46.392 277.616,44.376 277.616,41.352 C277.616,38.364 275.852,36.312 273.296,36.312 C270.704,36.312 268.94,38.364 268.94,41.352 Z M287.228,51 L287.228,31.596 L293.456,31.596 L293.456,34.764 C294.824,32.496 297.056,31.344 299.936,31.308 C304.22,31.308 307.028,34.224 307.028,38.76 L307.028,51 L300.836,51 L300.836,40.488 C300.836,38.22 299.504,36.816 297.416,36.816 C295.148,36.816 293.708,38.436 293.456,40.74 L293.456,51 L287.228,51 Z M309.836,41.352 C309.836,35.376 313.904,31.38 319.916,31.38 C323.768,31.38 326.864,32.964 328.556,35.736 L324.092,38.436 C323.192,37.176 321.86,36.42 320.168,36.42 C317.756,36.42 316.1,38.4 316.1,41.316 C316.1,44.304 317.756,46.248 320.168,46.248 C321.932,46.248 323.3,45.528 324.128,44.052 L328.664,46.716 C327.08,49.56 323.948,51.216 319.844,51.216 C313.868,51.216 309.836,47.256 309.836,41.352 Z M331.112,43.836 L331.112,31.596 L337.34,31.596 L337.34,42.072 C337.34,44.376 338.6,45.78 340.58,45.78 C342.956,45.744 344.36,43.8 344.36,41.172 L344.36,31.596 L350.588,31.596 L350.588,51 L344.36,51 L344.36,47.796 C343.028,50.1 340.868,51.252 338.06,51.252 C333.848,51.252 331.112,48.372 331.112,43.836 Z M355.556,51 L355.556,31.596 L361.784,31.596 L361.784,34.872 C363.116,32.604 365.312,31.344 368.084,31.308 L368.084,36.924 C364.484,36.6 362.108,38.292 361.784,41.028 L361.784,51 L355.556,51 Z M369.02,48.516 L371,44.556 C373.196,46.104 375.716,46.968 377.876,46.968 C379.1,46.968 380,46.536 380,45.636 C380,42.792 369.956,44.268 369.992,37.464 C369.992,33.468 373.376,31.308 377.876,31.308 C380.684,31.308 383.492,32.1 385.868,33.504 L383.744,37.536 C381.404,36.276 379.244,35.592 377.624,35.592 C376.508,35.592 375.716,36.024 375.716,36.924 C375.716,39.588 385.94,38.292 385.904,45.06 C385.904,49.056 382.412,51.252 377.732,51.252 C374.492,51.252 371.36,50.316 369.02,48.516 Z M387.776,41.28 C387.776,35.304 392.024,31.38 398.396,31.38 C404.732,31.38 408.98,35.304 408.98,41.28 C408.98,47.256 404.732,51.216 398.396,51.216 C392.024,51.216 387.776,47.256 387.776,41.28 Z M394.04,41.352 C394.04,44.376 395.804,46.392 398.396,46.392 C400.952,46.392 402.716,44.376 402.716,41.352 C402.716,38.364 400.952,36.312 398.396,36.312 C395.804,36.312 394.04,38.364 394.04,41.352 Z" id="Próximo-Concurso" fill="#696969"></path>
            <g id="Rocket">
                <g>
                    <g id="Smoke" transform="translate(0.000000, 36.000000)" fill="#2C5871">
                        <path d="M20.1834547,15 C19.3683086,15 18.5531625,14.6639501 17.9325271,13.9920939 C17.3312304,13.3409364 17,12.4749992 17,11.5540277 C17,10.6330563 17.3314553,9.76711906 17.9332017,9.11596156 L18.2880433,9.50047079 C17.7814159,10.0491087 17.5023549,10.7784344 17.5023549,11.5540277 C17.50213,12.3296211 17.7811911,13.0589467 18.2875935,13.6070976 C19.3332292,14.7396831 21.0341299,14.7396831 22.0793159,13.6070976 L34.6447087,0 L35,0.384509237 L22.4346072,13.9920939 C21.8137469,14.6639501 20.9986008,15 20.1834547,15" id="Fill-155"></path>
                        <path d="M18.6535797,31 C17.5872979,29.8429411 17,28.3045389 17,26.6686711 C17.0002309,25.0328033 17.5875289,23.4946516 18.6542725,22.3375928 L34.6351039,5 L35,5.39562494 L19.0189376,22.7334682 C18.0496536,23.7845427 17.5159353,25.1821336 17.5159353,26.6686711 C17.5159353,28.1554592 18.0494226,29.55305 19.0184758,30.6046256 L18.6535797,31" id="Fill-156"></path>
                        <path d="M34.0445515,36 L34.0443257,36 C31.4168423,36 28.9467188,34.853624 27.0888772,32.7722928 C26.6906231,32.3266906 26.3242023,31.8398665 26,31.3259825 L26.4118001,31 C26.7195214,31.4880886 27.0672035,31.9498761 27.4453642,32.3729705 C29.2081577,34.3475798 31.5513998,35.4350311 34.0443257,35.4350311 C36.5370259,35.435284 38.8807194,34.3478327 40.6432872,32.3734763 L41,32.7730514 C39.1423841,34.853624 36.6720349,36 34.0445515,36" id="Fill-157"></path>
                        <path d="M25.5330548,25 L25,24.9944409 C25.0260201,22.0928442 26.1076464,19.3648429 28.0455502,17.3132829 L40.6228273,4 L41,4.39899166 L28.4227229,17.7125272 C26.5838866,19.6587171 25.5576427,22.2467301 25.5330548,25" id="Fill-158"></path>
                        <path d="M40.6595757,30 L40.3062365,29.6121113 C43.2324658,26.4 43.2324658,21.1735679 40.3062365,17.9614566 C38.8890784,16.4052373 37.0047522,15.5484452 35.0001118,15.5484452 C32.9954714,15.5484452 31.1109216,16.4052373 29.6937635,17.9614566 C26.7675342,21.1735679 26.7675342,26.4 29.6937635,29.6121113 L29.3404243,30 C26.2198586,26.5740589 26.2198586,20.999509 29.3404243,17.5735679 C30.852179,15.9139935 32.8619629,15 35.0001118,15 C37.1380371,15 39.1480446,15.9139935 40.6595757,17.5735679 C43.7801414,20.999509 43.7801414,26.5740589 40.6595757,30" id="Fill-159"></path>
                        <path d="M35,30 C31.6918183,29.9990274 29.0004863,27.3076409 29,23.9998784 L29.5426916,23.9998784 C29.5431779,27.0080846 31.9913685,29.4563248 35,29.4572974 C38.0091178,29.4568111 40.4570653,27.0085709 40.4570653,23.9998784 C40.4570653,22.5419731 39.8893301,21.1716005 38.8588969,20.1409033 C37.8284638,19.1104492 36.4581189,18.5427026 35.0009726,18.5427026 L35,18.5427026 L35,18 L35.0009726,18 C36.6032743,18 38.1097783,18.6236703 39.2428172,19.7567321 C40.3758561,20.8900371 41,22.3970579 41,23.9998784 C41,27.3081272 38.3084248,29.9995137 35,30" id="Fill-160"></path>
                        <path d="M10.3903112,22 C7.88854372,22 5.41231167,20.8068928 3.76141222,18.527565 C0.924170378,14.6092238 1.58527982,8.94271887 5.23473515,5.89607024 C7.00300378,4.42027908 9.20186035,3.77241983 11.422504,4.07119964 C13.6447876,4.36997945 15.6255389,5.57993706 17,7.47824512 L16.5869823,7.8227976 C15.2984983,6.04319666 13.4412071,4.90868849 11.357377,4.62851955 C9.27518681,4.3488536 7.21384662,4.95597014 5.55591908,6.33946149 C2.13393975,9.19597751 1.51429607,14.508876 4.17442992,18.182761 C6.83526659,21.8563946 11.7846852,22.5221102 15.2066645,19.6648396 L15.5278484,20.1084824 C14.0013462,21.382572 12.1890349,22 10.3903112,22" id="Fill-161"></path>
                        <path d="M10.1529852,19 C8.31845952,19 6.50269959,18.138311 5.29148035,16.4925376 C3.21110025,13.66235 3.6959205,9.57014332 6.37228983,7.3700862 C7.66878613,6.30421378 9.27931103,5.83481803 10.9097893,6.05180997 C12.539555,6.26729501 13.9921155,7.14103916 15,8.51180534 L14.5809785,8.85612935 C13.6600338,7.60365391 12.3331323,6.80525419 10.8439906,6.6083541 C9.35556155,6.41095171 7.88281016,6.83890803 6.69795792,7.81286025 C4.252478,9.82304943 3.80970242,13.5623931 5.71050187,16.1482136 C7.61248902,18.7340342 11.1494678,19.2016719 13.5944726,17.1912316 L13.9201407,17.6342568 C12.8008496,18.5544633 11.4720478,19 10.1529852,19" id="Fill-162"></path>
                        <path d="M19.0957284,17 C18.455507,17 17.8200063,16.8337131 17.2337361,16.5043466 C16.259017,15.9571296 15.5369695,15.0260217 15.2006735,13.8822442 C14.8639278,12.7394536 14.9531721,11.5209211 15.4519963,10.4514052 C15.9508205,9.38188942 16.798979,8.58918946 17.8406876,8.21985493 C18.8830706,7.85076712 19.9926678,7.94871355 20.9673869,8.49617736 C21.9418813,9.04339445 22.6639287,9.97474905 23,11.1182798 L22.5223067,11.2875273 C22.2273732,10.2838848 21.5938957,9.46675988 20.7387685,8.98664967 C19.8838661,8.50629273 18.9095966,8.42043541 17.995123,8.74412739 C17.0810991,9.06831281 16.3365719,9.76380649 15.8991173,10.7023159 C15.461213,11.641072 15.3829837,12.7100943 15.6783668,13.71275 C15.9737498,14.7166392 16.6070025,15.5335174 17.4623545,16.0136276 C18.3174817,16.4937378 19.291976,16.5795952 20.206,16.2556565 L20.3604354,16.7799289 C19.9454605,16.9272186 19.5194704,17 19.0957284,17" id="Fill-163"></path>
                        <path d="M7.27075511,31 C5.8622911,31 4.53787519,30.4517742 3.54198913,29.4558706 C1.48604354,27.4001436 1.48604354,24.0554876 3.54174967,22 L3.92008581,22.3782518 C2.07294345,24.2252221 2.07294345,27.2306485 3.92032526,29.0778582 C4.81516205,29.972735 6.00500524,30.46542 7.27075511,30.4651806 C8.53650498,30.4651806 9.72634817,29.9724956 10.6216639,29.0773794 L11,29.4556312 C10.003635,30.4515348 8.67921912,31 7.27075511,31" id="Fill-164"></path>
                        <path d="M7.00987849,35 C6.28615263,35 5.55924071,34.883708 4.8507099,34.6488635 C3.0719079,34.0606218 1.62298569,32.7969824 0.771572331,31.0912826 C-0.0798410271,29.3860851 -0.232281761,27.4430291 0.34243451,25.6202838 L0.863232836,25.7925869 C0.333611574,27.4729184 0.47404331,29.2640162 1.25879448,30.8360932 C2.04379074,32.4081702 3.37924019,33.5725973 5.01908094,34.1151259 C6.65867661,34.6584079 8.40610817,34.5139848 9.93982861,33.7099876 C11.4737941,32.9054881 12.6102373,31.5368593 13.1401037,29.8560254 C14.2326773,26.3871078 12.3680968,22.6537075 8.9840105,21.5337376 L9.15189137,21 C12.8237034,22.2149124 14.8463615,26.2650388 13.660902,30.0285796 C13.0861857,31.8520784 11.8531804,33.3367481 10.1893216,34.2090637 C9.18816345,34.7342615 8.10269719,35 7.00987849,35" id="Fill-165"></path>
                        <path d="M19.9530578,36 C18.6753317,36 17.4355715,35.5640531 16.3874817,34.7328049 C15.0897372,33.7032863 14.2418315,32.1912273 14,30.4749499 L14.5082833,30.3919242 C14.729406,31.9619772 15.5050615,33.3454084 16.6923597,34.2869445 C17.8794277,35.2287285 19.3361689,35.6165948 20.7938305,35.3779269 C23.8030331,34.8859687 25.8796545,31.8489632 25.4231429,28.6079871 C24.9659411,25.3662675 22.1458778,23.1295305 19.1369053,23.6217365 L19.0595929,23.0747583 C22.3472123,22.5344717 25.4314264,24.9811274 25.9311961,28.5247135 C26.4302755,32.067804 24.1603731,35.3875926 20.871143,35.9254008 C20.5641942,35.975464 20.2574755,36 19.9530578,36" id="Fill-166"></path>
                    </g>
                    <g id="Pencil" transform="translate(21.000000, 0.000000)">
                        <path d="M19.1056036,52 C20.8994136,51.0625684 22.6231767,49.8138778 24.1806545,48.2575829 C30.87653,41.5609466 31.9515978,31.7840037 26.5847863,26.4152432 C21.2167565,21.0483101 11.4382079,22.1234023 4.74294143,28.8200386 C3.18668181,30.3757244 1.93741039,32.0995265 1,33.8939863 C6.92962324,30.7923606 13.6474265,31.1121473 17.7680121,35.2322171 C21.8867705,39.3528961 22.2071589,46.0708515 19.1056036,52 Z" id="Fill-15" fill="#CAF3EA"></path>
                        <path d="M9.56249502,31.7376475 C13.1389974,31.7376475 16.3810327,33.0086439 18.6897,35.3164739 C22.4624149,39.0890278 23.3094495,44.9678386 21.0466658,50.7283612 C22.1303629,50.0029397 23.1494608,49.1646614 24.0930923,48.2219756 C30.4546056,41.8621656 31.5238132,32.5819608 26.4754147,27.534186 C24.3901279,25.4496554 21.5610446,24.3476424 18.2948599,24.3476424 C13.8815865,24.3476424 9.31979517,26.3772534 5.78012042,29.9162481 C4.83528143,30.8607445 3.99549164,31.8806798 3.26859954,32.9657945 C5.34241546,32.1582954 7.48445298,31.7376475 9.56249502,31.7376475 Z M17.944696,54 L18.9420596,52.0947125 C21.9921085,46.2641825 21.5193871,40.0528365 17.7364088,36.2694195 C15.6517257,34.1866994 12.825661,33.0858934 9.56249502,33.0858934 C7.02863609,33.0858934 4.38187947,33.7696725 1.90597871,35.0642059 L0,36.0612078 L0.99615612,34.1553167 C1.98627493,32.2608924 3.27524058,30.5143285 4.82622547,28.9633026 C8.6170523,25.1732469 13.5265926,23 18.2948599,23 C21.8743809,23 25.1182275,24.2715999 27.428706,26.5812405 C33.0029541,32.1546743 31.9337466,42.2900557 25.0463835,49.1749212 C23.4941912,50.7259471 21.74639,52.0144454 19.8518821,53.0042051 L17.944696,54 Z" id="Fill-16" fill="#2C5871"></path>
                        <path d="M28.6541488,29 L19.7430527,37.9397135 C21.7839871,41.9939633 21.4782775,47.2447414 19,52 C20.8114985,51.0503059 22.5522593,49.7852812 24.1250951,48.2086285 C29.8050193,42.5092294 31.4787332,34.6056021 28.6541488,29" id="Fill-17" fill="#CAF3EA"></path>
                        <path d="M21.1224885,37.9283356 C22.7077611,41.3973009 22.6765242,45.6714443 21.0792374,49.7619401 C22.1605146,49.0417065 23.1769153,48.2090113 24.1176265,47.2728273 C29.0668728,42.3436543 30.9134541,35.4972483 28.8043627,30.2785461 L21.1224885,37.9283356 Z M18,53 L18.9923722,51.1114807 C21.3249276,46.6680465 21.5946462,41.8010863 19.7132238,38.0916443 L19.4945655,37.6603417 L29.1954247,28 L29.6129178,28.823124 C32.564204,34.6370358 30.6941951,42.6122464 25.0661469,48.2173861 C23.5217226,49.7547617 21.7826683,51.03192 19.8976416,52.012969 L18,53 Z" id="Fill-18" fill="#2C5871"></path>
                        <path d="M21.0162038,42 L47,15.8291656 C45.812963,14.8958237 44.3226463,14.7309007 43.3594298,15.4339613 L19,39.9647282 L21.0162038,42" id="Fill-110" fill="#66CDE1"></path>
                        <path d="M19.6144823,39.316261 L20.6613415,40.3727419 L45.262234,15.5982353 C44.5215826,15.2500974 43.6970386,15.2422538 43.1661186,15.6030622 L19.6144823,39.316261 Z M20.6607423,42 L20.660143,42 C20.4833694,42 20.3125882,41.9288037 20.1873486,41.8020984 L18.1954996,39.7917076 C17.9348335,39.5286433 17.9348335,39.1020687 18.1954996,38.8396078 L42.2606782,14.6087273 L42.3415746,14.539341 C43.5088796,13.6880021 45.3641035,13.8605626 46.7423384,14.9435913 C46.8939442,15.0624529 46.9868252,15.241047 46.9988099,15.4335184 C47.0101953,15.6265932 46.9394859,15.814841 46.8040593,15.9512001 L21.134136,41.8027017 C21.0082971,41.9288037 20.8381151,42 20.6607423,42 Z" id="Fill-111" fill="#2C5871"></path>
                        <path d="M14,35.1319127 L18.7072068,40 L42.5851184,15.2966408 L42.5839293,15.2978711 L42.5987935,15.2689603 L42.5720379,15.2911047 C43.3426,14.1998756 43.0554229,12.4412376 41.8490414,11.1894613 C40.6384978,9.94260599 38.9404073,9.64611647 37.885641,10.4420863 L37.9070455,10.415636 L37.8785062,10.4291687 L37.8796953,10.4279384 L14,35.1319127" id="Fill-112" fill="#66CDE1"></path>
                        <path d="M14.638172,34.5109991 L18.4907635,38.3613834 L42.3229745,14.5315465 L42.3412102,14.5066269 C42.9320463,13.6970434 42.6372361,12.3033684 41.6689215,11.3333268 C41.0555947,10.7224924 40.2520091,10.3572073 39.5201504,10.3572073 C39.1256519,10.3572073 38.7724875,10.4629637 38.4977366,10.6635362 L38.4709909,10.6817701 L14.638172,34.5109991 Z M18.4907635,40 C18.3169166,40 18.1436777,39.9337503 18.0111651,39.8012509 L13.1987689,34.9911576 C13.0711192,34.8641283 13,34.6915144 13,34.5109991 C13,34.3310917 13.0711192,34.1584778 13.1981611,34.0314485 L37.6114825,9.62177476 C37.677131,9.55674065 37.7518972,9.50750921 37.8321342,9.47408046 L37.8345657,9.47286487 C38.3178112,9.16288919 38.897098,9 39.5201504,9 C40.6191541,9 41.7521977,9.50021567 42.6287261,10.37301 C44.0316578,11.7794487 44.4030578,13.805231 43.5338237,15.1648694 L43.519843,15.1946514 L43.5180195,15.1976904 C43.4858031,15.2675869 43.4408218,15.3332288 43.3836833,15.3909693 L43.3812519,15.3934005 L18.9709697,39.8012509 C18.8378492,39.9337503 18.6646103,40 18.4907635,40 Z" id="Fill-113" fill="#2C5871"></path>
                        <path d="M38.5650177,10.6420743 C39.2705594,9.6777282 39.1031841,8.18754061 38.1691814,7 L12,32.9827579 L14.0311048,35 L38.5650177,10.6420743" id="Fill-114" fill="#66CDE1"></path>
                        <path d="M12.626022,32.3377552 L13.6790763,33.3845573 L37.3854636,9.83420708 C37.7569879,9.28713765 37.7461317,8.4937971 37.3884792,7.73640854 L12.626022,32.3377552 Z M13.6790763,35 C13.5005516,35 13.3292644,34.9292944 13.2026084,34.8040617 L11.1972215,32.8111231 C10.9342595,32.549872 10.9342595,32.1262377 11.1972215,31.8649866 L37.0350486,6.19526662 C37.1719577,6.05984747 37.3643543,5.99333629 37.5525289,6.00052668 C37.7455286,6.01191148 37.9234501,6.10538665 38.0422655,6.256385 C39.1477916,7.66270696 39.3142538,9.4728896 38.4475648,10.6593052 L38.3788086,10.739598 L14.1555442,34.8040617 C14.0288881,34.9292944 13.857601,35 13.6790763,35 Z" id="Fill-115" fill="#2C5871"></path>
                        <path d="M38,7.09102016 C38.9389126,8.28711057 39.1075137,9.79108125 38.400733,10.7642028 L38.3995113,10.7654246 L38.4288332,10.7519853 L38.4068418,10.7782529 C39.4905315,9.98778253 41.2351863,10.2822236 42.4789249,11.5204643 C43.7183873,12.7635919 44.0134392,14.5100794 43.2217471,15.5937691 L43.2492364,15.5717776 L43.2339646,15.6004887 L43.2351863,15.599267 C44.207697,14.8918754 45.7122786,15.0616982 46.9089798,16 L52,2 L38,7.09102016" id="Fill-116" fill="#F0EDDA"></path>
                        <path d="M44.6510239,13.4060715 C45.2780387,13.4060715 45.9224873,13.5719868 46.5230509,13.8833784 L50.7552508,2.24526601 L39.1160999,6.47790803 C39.4846139,7.19507063 39.6409168,7.96272919 39.5741875,8.67388037 C40.7380425,8.56086564 42.0251362,9.0634205 42.9815893,10.0162308 C43.9584821,10.9954914 44.4297952,12.27893 44.3233891,13.4217012 C44.4303964,13.4114818 44.5398084,13.4060715 44.6510239,13.4060715 Z M47.1819275,16 L46.4533158,15.4283138 C45.5359384,14.7087466 44.3366147,14.5464382 43.6476799,15.0483919 L43.5052038,14.8536219 L43.017058,14.4009618 L42.6407289,14.2314397 L42.7038512,14.1112113 L42.6972384,14.1045987 C43.2815705,13.3038774 42.9900056,11.9254584 42.0329513,10.9660355 C41.4257749,10.3618876 40.6310351,10.0006011 39.9072328,10.0006011 C39.5170768,10.0006011 39.1678001,10.1051999 38.8960736,10.3035768 L38.8455758,10.2608957 L38.8738305,10.3071836 L38.7584069,10.3648933 L38.6501973,10.0955816 L37.8999436,9.46077547 L37.9564531,9.35677788 L37.9516438,9.35317102 C38.4674432,8.64262098 38.3117415,7.48902916 37.5723088,6.54764052 L37,5.81905621 L53,0 L47.1819275,16 Z" id="Fill-117" fill="#2C5871"></path>
                        <path d="M45,4.54510416 C45.4439244,5.53500964 46.0362518,6.42855832 46.8026799,7.19684317 C47.5671806,7.96127375 48.4653084,8.55675874 49.4546623,9 L52,2 L45,4.54510416" id="Fill-118" fill="#66CDE1"></path>
                        <path d="M45.6305403,4.47335928 C45.9766244,5.09356389 46.3927785,5.64858 46.8723,6.12926904 C47.3506029,6.60752112 47.9050688,7.02363089 48.5271672,7.36967826 L50.1820345,2.81805877 L45.6305403,4.47335928 Z M48.9055445,9 C48.8104932,9 48.7160512,8.97989514 48.627093,8.94029464 C47.5827474,8.47179038 46.6687928,7.84975805 45.9089918,7.09064711 C45.1485815,6.32848997 44.5270923,5.41402325 44.0597568,4.37283496 C43.9823754,4.20042052 43.9799381,4.00363654 44.0536638,3.82939438 C44.1273895,3.65576146 44.2705757,3.51990131 44.4478829,3.45532205 L51.0868496,1.04091059 C51.3366639,0.950743317 51.6138968,1.01227639 51.8003435,1.19931255 C51.9880089,1.38634872 52.0489392,1.66416139 51.9593717,1.91273062 L49.5453127,8.5516006 C49.4801173,8.72949819 49.344852,8.87205995 49.1712006,8.94577779 C49.0858982,8.98172285 48.9963306,9 48.9055445,9 Z" id="Fill-119" fill="#2C5871"></path>
                        <polyline id="Fill-120" fill="#66CDE1" points="21 40.9741955 19.029037 39 17 41.0281774 18.9739259 43 21 40.9741955"></polyline>
                        <path d="M17.5011678,41.5263188 L18.4752293,42.4988582 L19.4993853,41.4756309 L18.5264371,40.5014205 L17.5011678,41.5263188 Z M18.4752293,44 C18.3165964,44 18.1574069,43.9392859 18.0360667,43.8184148 L16.1820103,41.9669137 C16.065123,41.8499416 16,41.6917508 16,41.5263188 C16,41.3614439 16.065123,41.2032531 16.1820103,41.086281 L18.0878311,39.181864 C18.3305116,38.9390077 18.7234758,38.9395647 18.9667128,39.182421 L20.8179862,41.0361501 C20.9343169,41.1525652 21.0005531,41.311313 20.9999965,41.4761879 C20.9999965,41.6410629 20.9343169,41.7992537 20.8179862,41.9156688 L18.9149484,43.8178577 C18.7936082,43.9392859 18.6344187,44 18.4752293,44 Z" id="Fill-121" fill="#2C5871"></path>
                        <polyline id="Fill-122" fill="#66CDE1" points="19 39.8882026 14.1109935 35 12 37.1099444 16.8853009 42 19 39.8882026"></polyline>
                        <path d="M12.5893257,36.6733498 L16.3233305,40.4102016 L17.4101547,39.325176 L13.6737911,35.5895036 L12.5893257,36.6733498 Z M16.3227408,42 C16.1540855,42 15.9854302,41.935724 15.8568747,41.8065824 L11.1923172,37.1380238 C10.9357961,36.8809199 10.9357961,36.4640106 11.1929069,36.2069067 L13.2085147,34.1925331 C13.4656256,33.9360189 13.8825462,33.9354292 14.1390674,34.1931228 L18.8071631,38.8599123 C18.9310009,38.983157 19.000586,39.1506284 18.9999963,39.3257657 C18.9999963,39.5003133 18.9310009,39.6677846 18.8071631,39.7910294 L16.7886068,41.8071721 C16.6600514,41.935724 16.4913961,42 16.3227408,42 Z" id="Fill-123" fill="#2C5871"></path>
                        <polyline id="Fill-124" fill="#66CDE1" points="14 34.9736023 12.0290543 33 10 35.0287706 11.9733175 37 14 34.9736023"></polyline>
                        <path d="M10.5013041,34.5270135 L11.4746993,35.4989417 L12.498769,34.4752144 L11.5264875,33.5016152 L10.5013041,34.5270135 Z M11.4746993,37 C11.3159936,37 11.156731,36.9392893 11.035335,36.8178679 L9.18209746,34.9670268 C9.06515639,34.8506182 9.00000351,34.6918792 9.00000351,34.5270135 C8.99944665,34.3621477 9.06515639,34.2039657 9.18209746,34.0870001 L11.08768,32.1821321 C11.2040642,32.0657235 11.3622131,32 11.5270443,32 C11.6924324,32 11.8505813,32.0662805 11.9669655,32.1826891 L13.8179756,34.035758 C14.0607675,34.2786009 14.0607675,34.672385 13.8174187,34.9152278 L11.9140636,36.8178679 C11.7932245,36.9392893 11.6339619,37 11.4746993,37 Z" id="Fill-125" fill="#2C5871"></path>
                        <path d="M26,27 C23.48616,27.6399845 19.6318848,30.2095013 15.9206931,33.9212917 C12.2095013,37.6306874 9.63938583,41.48616 9,44 C11.51384,43.3600155 15.3687139,40.7899 19.0805043,37.0799056 C22.791696,33.3681152 25.3606142,29.5150373 26,27" id="Fill-283" fill="#CAF3EA"></path>
                        <path d="M25,28 C22.5662091,29.0495397 19.3421478,31.4193314 16.3809043,34.380814 C13.4190553,37.3416909 11.0500606,40.5660126 10,43 C12.4337909,41.9504603 15.6584578,39.5812742 18.6209124,36.6203973 C21.5815503,33.6583091 23.9499394,30.4333818 25,28 Z M8,45 L8.27939402,43.9011307 C8.97757734,41.1554659 11.7184145,37.1437782 15.4320015,33.4320015 C19.1449851,29.719018 23.1566728,26.9781808 25.9017341,26.279394 L27,26 L26.720606,27.0988693 C26.0224227,29.8433272 23.2821889,33.8550149 19.5698088,37.5692054 C15.8550149,41.2821889 11.8427238,44.0224227 9.0982659,44.720606 L8,45 Z" id="Fill-284" fill="#2C5871"></path>
                    </g>
                </g>
            </g>
        </g>
    </g>
</svg>
